[
	{
		"name": "hyperpipeapi.onrender.com (Official)",
		"locations": "🇩🇪",
		"api_url": "https://hyperpipeapi.onrender.com",
		"org": "Render"
	},
	{
		"name": "musicapi.adminforge.de",
		"locations": "🇩🇪",
		"api_url": "https://musicapi.adminforge.de",
		"org": "adminforge.de"
	},
	{
		"name": "hyperpipeapi.pfcd.me",
		"locations": "🇩🇪",
		"api_url": "https://hyperpipeapi.pfcd.me",
		"org": "Hetzner"
	},
	{
		"name": "hyperpipeapi.frontendfriendly.xyz",
		"locations": "🇺🇸",
		"api_url": "https://hyperpipeapi.frontendfriendly.xyz",
		"org": "frontendfriendly.xyz"
	},
	{
        "name": "hyperpipeapi.drgns.space",
		"locations": "🇺🇸",
        "api_url": "https://hyperpipeapi.drgns.space",
        "org": "Homelab(Comcast Business)"
    },
	{
        "name": "hyperpipebackend.us.projectsegfau.lt",
		"locations": "🇺🇸",
        "api_url": "https://hyperpipebackend.us.projectsegfau.lt",
        "org": "Racknerd"
    },
	{
        "name": "hyperpipebackend.eu.projectsegfau.lt",
		"locations": "🇩🇪",
        "api_url": "https://hyperpipebackend.eu.projectsegfau.lt",
        "org": "Avoro"
    },
	{
        "name": "hyperpipebackend.in.projectsegfau.lt",
		"locations": "🇮🇳",
        "api_url": "https://hyperpipebackend.in.projectsegfau.lt",
        "org": "Homelab(Airtel)"
    },
	{
		"name": "hpapi.ggtyler.dev",
		"locations": "🇺🇸",
		"api_url": "https://hpapi.ggtyler.dev",
		"org": "ReliableSite"
	},
	{
		"name": "hyperpipe-api.lunar.icu",
		"locations": "🇩🇪",
		"api_url": "https://hyperpipe-api.lunar.icu",
		"org": "MAX.SRL"
	},
    {
		"name": "hp-proxy.iqbalrifai.eu.org",
		"locations": "🇮🇩",
		"api_url": "https://hp-proxy.iqbalrifai.eu.org",
		"org": "AS150249"
	},
    {
		"name": "hpapi.ngn.tf",
    	"locations": "🇹🇷",
    	"api_url": "https://hpapi.ngn.tf",
    	"org": "Homelab"
  	},
	{
		"name": "hyperpipeapi.ducks.party",
		"locations": "🇳🇱",
		"api_url": "https://hyperpipeapi.ducks.party",
		"org": "Timeweb Cloud"
	},
	{
		"name": "hyperpipeapi.darkness.services",
		"locations": "🇺🇸",
		"api_url": "https://hyperpipeapi.darkness.services",
		"org": "Stark"
	}
]
